07_PCA
…
library("ggridges")
source("99_proj_func.R")

Data description

This dataset is from Green and Bryar who have analysed data from a randomized clinical trial of prostate cancer paitients in stage 3 and 4. In this project the same data will be analysed

Meta data

Below is the full prostate data set after tidying.

prostate_tidy <- read_tsv("../data/02_dat_tidy.tsv.gz")
prostate_tidy

# A tibble: 502 × 20
   patient_no stage is_alive cause_of_death      age weight performance         
        <dbl> <dbl> <chr>    <chr>             <dbl>  <dbl> <chr>               
 1          1     3 alive    <NA>                 75     76 normal activity     
 2          2     3 dead     other ca             54    116 normal activity     
 3          3     3 dead     cerebrovascular      69    102 normal activity     
 4          4     3 dead     cerebrovascular      75     94 in bed < 50% daytime
 5          5     3 alive    <NA>                 67     99 normal activity     
 6          6     3 dead     prostatic ca         71     98 normal activity     
 7          7     3 dead     heart or vascular    75    100 normal activity     
 8          8     3 alive    <NA>                 73    114 normal activity     
 9          9     3 alive    <NA>                 60    110 normal activity     
10         10     3 alive    <NA>                 78    107 normal activity     
# ℹ 492 more rows
# ℹ 13 more variables: medical_history <lgl>, study_date <date>,
#   follow_up_months <dbl>, sys_blood_pressure <dbl>, dia_blood_pressure <dbl>,
#   ekg <chr>, serum_hemoglobin <dbl>, size_of_primary_tumor <dbl>,
#   combined_index <dbl>, serum_prostatic_acid_phosphatase <dbl>,
#   bone_metastases <lgl>, treatment <chr>, dosage <dbl>
…
Evident from the model is a much closer normal distribution even if an S-shape is present this is likely due to a few outliers, but overall it reveals a logarithmic scale may suit the data better.

Modelling based on log transformed data

As just confirmed it is to be investigated wether a log-transformation of our data improves correlations. This requires dropping patients with tumor size zero.

df_long_log <- df_long_nested |> 
  unnest(cols = c(data)) |>
  filter(size_of_primary_tumor > 0)

df_long_log |> slice_sample(n = 10)

# A tibble: 160 × 4
# Groups:   variable [16]
   variable patient_no size_of_primary_tumor value
   <chr>         <dbl>                 <dbl> <dbl>
 1 age             160                    16    72
 2 age              39                    26    53
 3 age             457                     1    77
 4 age             251                     4    78
 5 age             447                     2    74
 6 age             271                    19    79
 7 age             423                     4    72
 8 age             250                    16    79
 9 age               5                    34    67
10 age             428                    30    56
# ℹ 150 more rows
…
quantile(full_df$serum_prostatic_acid_phosphatase, probs = c(0.75, 0.90, 0.95, 0.99), na.rm = TRUE)

       75%        90%        95%        99% 
  2.699707  18.500000  34.044922 100.617969 

The 95th percentile threshold provides a definition of unusually high AP. Patients above this cutoff are flagged as having severe biochemical evidence of disease activity.

high_ap_threshold <- quantile(full_df$serum_prostatic_acid_phosphatase, 0.95, na.rm = TRUE)
high_ap_df <- full_df |> filter(serum_prostatic_acid_phosphatase >= high_ap_threshold)

high_ap_df |> select(patient_no, serum_prostatic_acid_phosphatase, bone_metastases, stage,
                     size_of_primary_tumor)

# A tibble: 25 × 5
   patient_no serum_prostatic_acid…¹ bone_metastases stage size_of_primary_tumor
        <dbl>                  <dbl> <lgl>           <dbl>                 <dbl>
 1         24                   35.7 TRUE                4                    26
 2         33                   35.4 FALSE               4                    38
 3         36                   99.2 TRUE                4                    10
 4         68                  175.  TRUE                4                    27
 5        112                   39.7 FALSE               4                    61
 6        113                   41.7 TRUE                4                    14
 7        119                   78.4 TRUE                4                    41
 8        143                   42.9 TRUE                4                    34
 9        151                  128.  FALSE               4                    23
10        153                  225.  TRUE                4                    17
# ℹ 15 more rows
# ℹ abbreviated name: ¹​serum_prostatic_acid_phosphatase
…
